// Jest Snapshot v1, https://goo.gl/fbAQLP

exports[`<ResponsiveBgImage /> should render the component and matches it against stored snapshot with custom props 1`] = `
<DocumentFragment>
  <div
    class="className lazyload makeStyles-root-1"
    data-bgset="webPMobileImage [type: image/webp] [(max-width:1279.95px)] | webPImage [type: image/webp] | fallbackMobileImage [(max-width:1279.95px)] | fallbackImage"
  >
    Hello world
  </div>
</DocumentFragment>
`;

exports[`<ResponsiveBgImage /> should render the component and matches it against stored snapshot with default props 1`] = `
<DocumentFragment>
  <div
    class="lazyload makeStyles-root-1"
    data-bgset="fallbackMobileImage [(max-width:1279.95px)] | fallbackImage"
  >
    Hello world
  </div>
</DocumentFragment>
`;
